﻿<<<<<<< HEAD
R09244002 資工系 包子 到此一遊
=======
﻿R09244002 資工系 包子 到此一遊
103306006 資管系羅靖婷
﻿103501002 英文系 劉式閎
R09244002 資工系 包子 到此一遊

>>>>>>> 758a40389e4f1b5cc4779e7383ccc43835bf5c52
政大資管系 劉皪
1234567
103306037 資管系 陳樺威 跟你說你好
<<<<<<< HEAD
102306016 資管系 陳華威好胖好胖好胖好胖
102101027 中文系 周孟嫺 hi~
<<<<<<< HEAD
102306080 資管系 許聖謙 到此一遊

=======
=======

101401004 新聞系 范毓婷 我不會用~_~非常困擾

>>>>>>> de91029f1882cba12a7948262989b548df288e78
102101027 中文系 周孟嫺 hi~
102306080 資管系 許聖謙 到此一遊.
103703013 資科系 黃育萱 yeeee
103703015 資科系 蔡雨芝 hola--

包子
<<<<<<< HEAD
=======
<<<<<<< HEAD
103103031 歷史系 鐘弘育 haaa

再試一次
=======
>>>>>>> de91029f1882cba12a7948262989b548df288e78
dfghjhgfdfghjkgf
>>>>>>> 758a40389e4f1b5cc4779e7383ccc43835bf5c52

103703038